Sparse Multiple Index (SMI) Models for Nonparametric Forecasting and Prediction • smimodel
…
# Obtain residuals and fitted values
augment(x = smimodel_ppr)
#> # A tibble: 1,000 × 3
#>    Index  .resid .fitted
#>    <int>   <dbl>   <dbl>
#>  1     6  0.0859   0.495
#>  2     7  0.0766   0.737
#>  3     8  0.137    3.70 
#>  4     9  0.0173   1.15 
#>  5    10  0.118    0.942
#>  6    11 -0.201    3.65 
#>  7    12 -0.0471   1.83 
#>  8    13  0.0111   1.28 
#>  9    14 -0.0464   2.46 
#> 10    15  0.0243   0.261
#> # ℹ 990 more rows
…
