…
``` r
# Plot estimated smooths
autoplot(object = smimodel_ppr)
```

<img src="man/figures/README-unnamed-chunk-3-1.png" width="100%" />

``` r

# Obtain residuals and fitted values
augment(x = smimodel_ppr)
#> # A tibble: 1,000 × 5
#>    Index New     Old  .resid .fitted
#>    <int> <chr> <dbl>   <dbl>   <dbl>
#>  1     6 1         1  0.0859   0.495
#>  2     7 1         1  0.0766   0.737
#>  3     8 1         1  0.137    3.70 
#>  4     9 1         1  0.0173   1.15 
#>  5    10 1         1  0.118    0.942
#>  6    11 1         1 -0.201    3.65 
#>  7    12 1         1 -0.0471   1.83 
#>  8    13 1         1  0.0111   1.28 
#>  9    14 1         1 -0.0464   2.46 
#> 10    15 1         1  0.0243   0.261
#> # ℹ 990 more rows
```
…
