…
``` r
# Fitted optimal SMI model
smimodel_ppr$fit[[1]]$best
#> $alpha
#> 6 x 2 sparse Matrix of class "dgCMatrix"
#>          index1   index2
#> x_000 1.6279857 .       
#> x_001 1.0728102 .       
#> x_002 .         1.211800
#> x_003 0.8107054 .       
#> x_004 .         .       
#> x_005 .         2.298439
#> 
#> $derivatives
#> # A tibble: 1,200 × 2
#>       d1    d2
#>    <dbl> <dbl>
#>  1 0.973 0.387
#>  2 1.41  0.550
#>  3 4.06  0.190
#>  4 1.74  0.460
#>  5 1.62  0.603
#>  6 4.04  0.159
#>  7 2.60  0.390
#>  8 1.90  0.599
#>  9 2.89  0.387
#> 10 0.777 0.375
#> # ℹ 1,190 more rows
…
``` r
# Fitted optimal SMI model
smimodel_additive$fit[[1]]$best
#> $alpha
#> 6 x 2 sparse Matrix of class "dgCMatrix"
#>          index1    index2
#> x_000 0.4634955 .        
#> x_001 0.3054954 .        
#> x_002 .         0.3451773
#> x_003 0.2310091 .        
#> x_004 .         .        
#> x_005 .         0.6548227
#> 
#> $derivatives
#> # A tibble: 1,200 × 2
#>       d1    d2
#>    <dbl> <dbl>
#>  1  3.42 1.36 
#>  2  4.95 1.93 
#>  3 14.3  0.667
#>  4  6.12 1.62 
#>  5  5.69 2.12 
#>  6 14.2  0.559
#>  7  9.14 1.37 
#>  8  6.69 2.10 
#>  9 10.1  1.36 
#> 10  2.73 1.31 
#> # ℹ 1,190 more rows
…
``` r
# Fitted optimal SMI model
smimodel_linear$fit[[1]]$best
#> $alpha
#> 6 x 1 sparse Matrix of class "dgCMatrix"
#>           index1
#> x_000 0.40811741
#> x_001 0.26853838
#> x_002 0.04185720
#> x_003 0.20411136
#> x_004 .         
#> x_005 0.07737565
#> 
#> $derivatives
#> # A tibble: 1,200 × 1
#>       d1
#>    <dbl>
#>  1  4.35
#>  2  6.55
#>  3 14.4 
#>  4  8.30
#>  5  7.70
#>  6 14.0 
#>  7 10.3 
#>  8  9.97
#>  9 11.8 
#> 10  3.27
#> # ℹ 1,190 more rows
…
### Residuals and fitted values

We can use the `augment` method to obtain the residuals and the fitted values from an estimated SMI model.


``` r
## Obtain residuals and fitted values
augment(x = smimodel_ppr)
#> # A tibble: 1,200 × 3
#>    Index   .resid .fitted
#>    <int>    <dbl>   <dbl>
#>  1     6  0.0566    0.757
#>  2     7 -0.0397    1.50 
#>  3     8 -0.0552    3.78 
#>  4     9  0.0499    1.78 
#>  5    10  0.155     1.88 
#>  6    11 -0.145     3.70 
#>  7    12  0.200     2.16 
#>  8    13 -0.00571   2.20 
#>  9    14 -0.0585    2.78 
#> 10    15  0.0690    0.588
#> # ℹ 1,190 more rows
```
…
``` r
# Fitted optimal SMI model
smimodel_ppr_tune$fit[[1]]$best
#> $alpha
#> 6 x 2 sparse Matrix of class "dgCMatrix"
#>          index1   index2
#> x_000 1.6282120 .       
#> x_001 1.0726790 .       
#> x_002 .         1.208052
#> x_003 0.8106106 .       
#> x_004 .         .       
#> x_005 .         2.302190
#> 
#> $derivatives
#> # A tibble: 1,200 × 2
#>       d1    d2
#>    <dbl> <dbl>
#>  1 0.973 0.385
#>  2 1.41  0.550
#>  3 4.06  0.190
#>  4 1.74  0.461
#>  5 1.62  0.603
#>  6 4.04  0.159
#>  7 2.60  0.389
#>  8 1.90  0.599
#>  9 2.89  0.386
#> 10 0.777 0.374
#> # ℹ 1,190 more rows
…
