…
# Predictors taken as linear variables
linear.vars <- colnames(sim_data)[7:8]

# Model fitting
gamModel <- model_gam(data = sim_data,
                      yvar = "y",
                      s.vars = s.vars,
                      linear.vars = linear.vars)
#> [1] "model 1"

# Obtain residuals and fitted values
augment(gamModel)
#> # A tibble: 1,000 × 3
#>    Index  .resid .fitted
#>    <int>   <dbl>   <dbl>
#>  1     6 -0.392    0.959
#>  2     7 -0.219    0.985
#>  3     8  0.515    3.10 
#>  4     9 -0.166    1.41 
#>  5    10 -0.0998   1.01 
#>  6    11  0.356    3.23 
#>  7    12 -0.0723   1.92 
#>  8    13 -0.0837   1.38 
#>  9    14  0.238    2.25 
#> 10    15 -0.134    0.283
#> # ℹ 990 more rows
```
