…
# Index variables
index.vars <- colnames(sim_data)[3:8]

# Model fitting
pprModel <- model_ppr(data = sim_data,
                      yvar = "y",
                      index.vars = index.vars)
#> [1] "model 1"

# Obtain residuals and fitted values
augment(pprModel)
#> # A tibble: 1,000 × 3
#>    Index   .resid .fitted
#>    <int>    <dbl>   <dbl>
#>  1     6  0.0637    0.503
#>  2     7  0.0388    0.726
#>  3     8 -0.0444    3.66 
#>  4     9  0.0492    1.20 
#>  5    10 -0.0509    0.964
#>  6    11 -0.0312    3.61 
#>  7    12  0.00121   1.85 
#>  8    13 -0.00829   1.31 
#>  9    14  0.00486   2.48 
#> 10    15 -0.108     0.258
#> # ℹ 990 more rows
```
