…
# Predictors taken as non-linear variables
s.vars <- colnames(sim_data)[3:8]

# Model fitting
backwardModel <- model_backward(data = sim_train,
                                val.data = sim_val,
                                yvar = "y",
                                s.vars = s.vars)
#> [1] "Model 1 fitted!"
# Obtain residuals and fitted values
augment(backwardModel)
#> # A tibble: 1,200 × 3
#>    Index  .resid .fitted
#>    <int>   <dbl>   <dbl>
#>  1     6 -0.415    0.996
#>  2     7 -0.176    0.990
#>  3     8  0.700    3.14 
#>  4     9 -0.242    1.41 
#>  5    10  0.0473   1.01 
#>  6    11  0.213    3.24 
#>  7    12 -0.113    1.90 
#>  8    13 -0.102    1.40 
#>  9    14  0.151    2.26 
#> 10    15 -0.0155   0.300
#> # ℹ 1,190 more rows
```
