…
# Predictors taken as non-linear variables not entering indices
s.vars = "x_lag_005"

# Model fitting
gaimModel <- model_gaim(data = sim_data,
                        yvar = "y",
                        index.vars = index.vars,
                        index.ind = index.ind,
                        s.vars = s.vars)
#> [1] "model 1"
# Obtain residuals and fitted values
augment(gaimModel)
#> # A tibble: 1,000 × 3
#>    Index  .resid .fitted
#>    <int>   <dbl>   <dbl>
#>  1     6  0.160    0.407
#>  2     7 -0.230    0.995
#>  3     8  0.381    3.24 
#>  4     9 -0.162    1.41 
#>  5    10 -0.0843   0.997
#>  6    11  0.403    3.18 
#>  7    12  0.0542   1.80 
#>  8    13 -0.0269   1.33 
#>  9    14  0.249    2.24 
#> 10    15 -0.0629   0.213
#> # ℹ 990 more rows
```
